<svg xmlns="http://www.w3.org/2000/svg" width="36" height="36" viewBox="0 0 36 36">
  <g id="filter_icon_audio" transform="translate(-187 -519)">
    <circle id="Ellipse_4" data-name="Ellipse 4" cx="18" cy="18" r="18" transform="translate(187 519)" fill="#d5e1e2"/>
    <path id="audio" d="M20.951,10.288h-.615a.613.613,0,0,1-.612-.612V8.329a2.292,2.292,0,0,0-4.585,0V15.16a1.028,1.028,0,1,1-2.056,0V2.292a2.292,2.292,0,0,0-4.585,0V15.16a1.028,1.028,0,1,1-2.055,0V8.329a2.292,2.292,0,0,0-4.585,0V9.676a.613.613,0,0,1-.612.612H.632a.632.632,0,0,0,0,1.265h.615A1.88,1.88,0,0,0,3.124,9.676V8.329a1.028,1.028,0,0,1,2.056,0V15.16a2.292,2.292,0,0,0,4.585,0V2.292a1.028,1.028,0,0,1,2.055,0V15.16a2.292,2.292,0,1,0,4.585,0V8.329a1.028,1.028,0,0,1,2.056,0V9.676a1.88,1.88,0,0,0,1.877,1.877h.615a.632.632,0,1,0,0-1.265Zm0,0" transform="translate(194.32 527.795)" fill="#7bb0b1"/>
  </g>
</svg>
