<svg xmlns="http://www.w3.org/2000/svg" width="30" height="30" viewBox="0 0 30 30">
  <g id="Group_68" data-name="Group 68" transform="translate(-126 -315)">
    <g id="Icon_ionic-ios-list" data-name="Icon ionic-ios-list" transform="translate(130.474 317.688)">
      <path id="Path_119" data-name="Path 119" d="M6.53,17.046a1.015,1.015,0,1,1-1.015-1.015A1.015,1.015,0,0,1,6.53,17.046Z" transform="translate(-1 -4.223)" fill="#d1c5b0" stroke="#d1c5b0" stroke-width="1"/>
      <path id="Path_120" data-name="Path 120" d="M6.53,8.328A1.015,1.015,0,1,1,5.515,7.313,1.015,1.015,0,0,1,6.53,8.328Z" transform="translate(-1 0)" fill="#d1c5b0" stroke="#d1c5b0" stroke-width="1"/>
      <path id="Path_121" data-name="Path 121" d="M6.53,25.765A1.015,1.015,0,1,1,5.515,24.75,1.015,1.015,0,0,1,6.53,25.765Z" transform="translate(-1 -8.446)" fill="#d1c5b0" stroke="#d1c5b0" stroke-width="1"/>
      <path id="Path_122" data-name="Path 122" d="M21.64,16.875H12.92a.58.58,0,0,0,0,1.16h8.72a.58.58,0,0,0,0-1.16Z" transform="translate(-3.797 -4.632)" fill="#d1c5b0" stroke="#d1c5b0" stroke-width="1"/>
      <path id="Path_123" data-name="Path 123" d="M21.64,25.594H12.92a.58.58,0,0,0,0,1.16h8.72a.58.58,0,0,0,0-1.16Z" transform="translate(-3.797 -8.855)" fill="#d1c5b0" stroke="#d1c5b0" stroke-width="1"/>
      <path id="Path_124" data-name="Path 124" d="M12.92,9.316h8.72a.58.58,0,0,0,0-1.16H12.92a.58.58,0,0,0,0,1.16Z" transform="translate(-3.797 -0.409)" fill="#d1c5b0" stroke="#d1c5b0" stroke-width="1"/>
    </g>
    <g id="Group_121" data-name="Group 121">
      <g id="Ellipse_7" data-name="Ellipse 7" transform="translate(126 315)" fill="none" stroke="#d1c5b0" stroke-width="2">
        <circle cx="15" cy="15" r="15" stroke="none"/>
        <circle cx="15" cy="15" r="14" fill="none"/>
      </g>
    </g>
  </g>
</svg>
