<svg xmlns="http://www.w3.org/2000/svg" width="24.733" height="20" viewBox="0 0 24.733 20">
  <path id="audio" d="M24.009,11.79h-.7a.7.7,0,0,1-.7-.7V9.545a2.627,2.627,0,0,0-5.254,0v7.828a1.178,1.178,0,1,1-2.356,0V2.627a2.627,2.627,0,0,0-5.254,0V17.373a1.178,1.178,0,1,1-2.355,0V9.545a2.627,2.627,0,0,0-5.254,0v1.544a.7.7,0,0,1-.7.7h-.7a.725.725,0,1,0,0,1.449h.7a2.154,2.154,0,0,0,2.15-2.15V9.545a1.178,1.178,0,0,1,2.356,0v7.828a2.627,2.627,0,0,0,5.254,0V2.627a1.178,1.178,0,0,1,2.355,0V17.373a2.627,2.627,0,1,0,5.254,0V9.545a1.178,1.178,0,0,1,2.356,0v1.544a2.154,2.154,0,0,0,2.15,2.15h.7a.725.725,0,1,0,0-1.449Zm0,0" fill="#7bb0b1"/>
</svg>
